<?xml version="1.0" encoding="UTF-8" standalone="no"?>
<svg
   xmlns:dc="http://purl.org/dc/elements/1.1/"
   xmlns:cc="http://creativecommons.org/ns#"
   xmlns:rdf="http://www.w3.org/1999/02/22-rdf-syntax-ns#"
   xmlns:svg="http://www.w3.org/2000/svg"
   xmlns="http://www.w3.org/2000/svg"
   id="svg6421"
   version="1.1"
   viewBox="0 0 210 297"
   height="297mm"
   width="210mm">
  <defs
     id="defs6415">
    <clipPath
       clipPathUnits="userSpaceOnUse"
       id="clipPath3795">
      <path
         d="M 129.634,236.923 88.066,212.924 c -1.848,-1.068 -3.36,-3.687 -3.36,-5.82 v 0 -47.998 c 0,-2.135 1.512,-4.753 3.36,-5.821 v 0 l 41.568,-23.999 c 1.848,-1.068 4.872,-1.068 6.72,0 v 0 l 41.569,23.999 c 1.847,1.068 3.36,3.686 3.36,5.821 v 0 47.998 c 0,2.133 -1.513,4.752 -3.36,5.82 v 0 l -41.569,23.999 c -0.924,0.533 -2.142,0.8 -3.36,0.8 v 0 c -1.218,0 -2.436,-0.267 -3.36,-0.8"
         id="path3793" />
    </clipPath>
    <clipPath
       clipPathUnits="userSpaceOnUse"
       id="clipPath3859">
      <path
         d="M 0,500 H 500 V 0 H 0 Z"
         id="path3857" />
    </clipPath>
    <clipPath
       clipPathUnits="userSpaceOnUse"
       id="clipPath3697">
      <path
         d="m 363.646,455.49 -41.568,-23.999 c -1.848,-1.067 -3.36,-3.686 -3.36,-5.82 v 0 -47.999 c 0,-2.134 1.512,-4.753 3.36,-5.82 v 0 l 41.568,-23.999 c 1.849,-1.067 4.872,-1.067 6.72,0 v 0 l 41.568,23.999 c 1.848,1.067 3.36,3.686 3.36,5.82 v 0 47.999 c 0,2.134 -1.512,4.753 -3.36,5.82 v 0 l -41.568,23.999 c -0.924,0.533 -2.142,0.8 -3.36,0.8 v 0 c -1.218,0 -2.436,-0.267 -3.36,-0.8"
         id="path3695" />
    </clipPath>
    <clipPath
       clipPathUnits="userSpaceOnUse"
       id="clipPath5570">
      <path
         d="M 0,500 H 500 V 0 H 0 Z"
         id="path5568" />
    </clipPath>
    <clipPath
       id="clipPath3795-4"
       clipPathUnits="userSpaceOnUse">
      <path
         id="path3793-3"
         d="M 129.634,236.923 88.066,212.924 c -1.848,-1.068 -3.36,-3.687 -3.36,-5.82 v 0 -47.998 c 0,-2.135 1.512,-4.753 3.36,-5.821 v 0 l 41.568,-23.999 c 1.848,-1.068 4.872,-1.068 6.72,0 v 0 l 41.569,23.999 c 1.847,1.068 3.36,3.686 3.36,5.821 v 0 47.998 c 0,2.133 -1.513,4.752 -3.36,5.82 v 0 l -41.569,23.999 c -0.924,0.533 -2.142,0.8 -3.36,0.8 v 0 c -1.218,0 -2.436,-0.267 -3.36,-0.8" />
    </clipPath>
  </defs>
  <metadata
     id="metadata6418">
    <rdf:RDF>
      <cc:Work
         rdf:about="">
        <dc:format>image/svg+xml</dc:format>
        <dc:type
           rdf:resource="http://purl.org/dc/dcmitype/StillImage" />
        <dc:title></dc:title>
      </cc:Work>
    </rdf:RDF>
  </metadata>
  <g
     id="layer1">
    <path
       transform="matrix(1.2671842,-0.12247478,0.11242021,1.2776036,-92.075475,-15.798614)"
       d="M 179.53727,187.18325 115.73351,195.943 76.245464,145.0672 100.56118,85.431646 164.36494,76.671898 203.85299,127.5477 Z"
       id="path7293"
       style="fill:#30456c;fill-opacity:1;fill-rule:evenodd;stroke:#ffffff;stroke-width:4.99999;stroke-linecap:round;stroke-linejoin:round;stroke-miterlimit:4;stroke-dasharray:none;stroke-opacity:1;paint-order:stroke fill markers" />
    <text
       transform="scale(1.1984543,0.83440809)"
       id="text7291"
       y="237.55481"
       x="38.66148"
       style="font-size:208.534px;line-height:1.25;font-family:Chewy;-inkscape-font-specification:Chewy;fill:#ffffff;fill-opacity:1;stroke-width:5.21338"
       xml:space="preserve"><tspan
         style="fill:#ffffff;fill-opacity:1;stroke-width:5.21338"
         y="237.55481"
         x="38.66148"
         id="tspan7289">e</tspan></text>
    <g
       id="g3789"
       transform="matrix(-1.7150451,0.41967497,-0.43266897,-1.3244102,382.83175,243.94047)">
      <g
         id="g3791"
         clip-path="url(#clipPath3795)">
        <path
           d="m 163.635,121.724 h -61.282 v 49.102 h 61.282 z"
           style="fill:#f29b00;fill-opacity:1;fill-rule:nonzero;stroke:none"
           id="path3797" />
        <g
           id="g3799"
           transform="translate(177.9287,170.8252)">
          <path
             d="M 0,0 -44.935,-22.468 -89.869,0 -44.935,22.467 Z"
             style="fill:#ffcc00;fill-opacity:1;fill-rule:nonzero;stroke:none"
             id="path3801" />
        </g>
        <g
           id="g3803"
           transform="translate(132.9941,170.8252)">
          <path
             d="M 0,0 22.467,-11.234 V -22.146"
             style="fill:none;stroke:#ffffff;stroke-width:1.5;stroke-linecap:round;stroke-linejoin:miter;stroke-miterlimit:10;stroke-dasharray:none;stroke-opacity:1"
             id="path3805" />
        </g>
        <g
           id="g3807"
           transform="translate(154.9224,151.1934)">
          <path
             d="M 0,0 C 0.293,0.509 0.774,0.509 1.068,0 L 2.262,-2.067 C 2.555,-2.575 3.036,-3.408 3.33,-3.917 L 4.523,-5.984 C 4.816,-6.492 4.576,-6.909 3.989,-6.909 H 1.602 -0.534 -2.921 c -0.587,0 -0.828,0.417 -0.534,0.925 l 1.194,2.067 c 0.293,0.509 0.774,1.342 1.068,1.85 z"
             style="fill:#ffffff;fill-opacity:1;fill-rule:nonzero;stroke:none"
             id="path3809" />
        </g>
      </g>
    </g>
    <g
       style="fill:#ffffff;fill-opacity:1"
       transform="matrix(-0.25848595,0.24207138,-0.45720794,-0.11660712,179.19925,56.669992)"
       id="g7287">
      <g
         transform="matrix(0.9999129,0,0,-1.044499,111.40937,138.1793)"
         id="g5576"
         style="fill:#ffffff;fill-opacity:1">
        <path
           id="path5578"
           style="fill:#ffffff;fill-opacity:1;fill-rule:evenodd;stroke:none"
           d="m 0,0 h 10.43 c 0.23,-3.396 0.987,-6.649 2.148,-9.775 H 2.338 C 0.943,-6.783 0.153,-3.532 0,0 m 5.674,17.069 c 2.549,-1.103 5.042,-2.18 7.613,-3.29 C 11.548,10.008 10.401,6.007 10.349,1.721 H 0.001 c 0.174,5.805 2.133,10.888 5.673,15.348 m 15.937,9.124 c -1.004,-1.235 -1.984,-2.293 -2.794,-3.467 -1.513,-2.192 -2.941,-4.442 -4.368,-6.691 -0.234,-0.37 -0.408,-0.484 -0.814,-0.31 -2.071,0.885 -4.149,1.752 -6.223,2.629 -0.11,0.045 -0.205,0.123 -0.379,0.229 4.017,4.14 8.818,6.642 14.578,7.61 m 3.123,0.259 V 13.604 c -2.955,-0.008 -5.796,0.571 -8.704,1.37 2.26,4.319 5.12,8.083 8.704,11.478 M 24.738,1.737 H 12.339 c 0.057,0.76 0.076,1.527 0.177,2.284 0.407,3.041 1.243,5.965 2.473,8.777 0.123,0.279 0.225,0.494 0.626,0.375 2.858,-0.852 5.776,-1.361 8.754,-1.52 0.102,-0.005 0.202,-0.028 0.369,-0.056 z M 24.732,-9.775 H 14.514 c -1.239,3.019 -2.077,6.142 -2.209,9.448 -0.004,0.097 0.021,0.195 0.035,0.322 h 12.392 z m 1.723,9.768 H 38.86 c -0.064,-3.5 -0.945,-6.729 -2.201,-9.768 H 26.623 c -0.056,0.009 -0.112,0.019 -0.168,0.029 z m 0,11.465 c 3.186,0.571 6.321,1.134 9.557,1.715 1.601,-3.523 2.649,-7.351 2.829,-11.45 H 26.455 Z m 0.021,14.963 c 3.518,-3.329 6.343,-7.047 8.587,-11.277 -1.806,-0.748 -6.935,-1.625 -8.587,-1.481 z m 17.359,-7.736 c -0.196,-0.128 -0.334,-0.247 -0.489,-0.313 -1.974,-0.849 -3.951,-1.684 -5.923,-2.539 -0.367,-0.16 -0.536,-0.067 -0.721,0.272 -1.925,3.549 -4.262,6.808 -6.962,9.807 -0.038,0.044 -0.068,0.097 -0.174,0.246 5.6,-0.978 10.299,-3.443 14.269,-7.473 m 1.738,-1.986 c 2.886,-3.759 4.674,-7.966 5.213,-12.686 0.087,-0.747 0.13,-1.5 0.196,-2.291 H 40.829 c -0.061,4.291 -1.197,8.302 -3.006,12.195 0.275,0.108 0.502,0.192 0.722,0.286 2.076,0.875 4.155,1.742 6.22,2.641 0.349,0.153 0.544,0.199 0.808,-0.145 M 50.617,-3.329 C 50.228,-5.601 49.554,-7.748 48.61,-9.775 H 38.592 c 1.162,3.134 1.919,6.366 2.154,9.768 H 50.99 c -0.124,-1.141 -0.186,-2.242 -0.373,-3.322 m 0.081,-6.446 C 52.392,-5.82 53.189,-1.37 52.787,3.352 51.593,17.461 39.61,28.665 24.879,28.389 9.14,28.016 -3.155,14.511 -1.849,-1.348 -1.605,-4.295 -0.87,-7.131 0.268,-9.775" />
      </g>
      <g
         style="fill:#ffffff;fill-opacity:1"
         id="g5576-9"
         transform="matrix(0.99991291,0,0,1.044499,111.57736,136.42141)">
        <path
           d="m 0,0 h 10.43 c 0.23,-3.396 0.987,-6.649 2.148,-9.775 H 2.338 C 0.943,-6.783 0.153,-3.532 0,0 m 5.674,17.069 c 2.549,-1.103 5.042,-2.18 7.613,-3.29 C 11.548,10.008 10.401,6.007 10.349,1.721 H 0.001 c 0.174,5.805 2.133,10.888 5.673,15.348 m 15.937,9.124 c -1.004,-1.235 -1.984,-2.293 -2.794,-3.467 -1.513,-2.192 -2.941,-4.442 -4.368,-6.691 -0.234,-0.37 -0.408,-0.484 -0.814,-0.31 -2.071,0.885 -4.149,1.752 -6.223,2.629 -0.11,0.045 -0.205,0.123 -0.379,0.229 4.017,4.14 8.818,6.642 14.578,7.61 m 3.123,0.259 V 13.604 c -2.955,-0.008 -5.796,0.571 -8.704,1.37 2.26,4.319 5.12,8.083 8.704,11.478 M 24.738,1.737 H 12.339 c 0.057,0.76 0.076,1.527 0.177,2.284 0.407,3.041 1.243,5.965 2.473,8.777 0.123,0.279 0.225,0.494 0.626,0.375 2.858,-0.852 5.776,-1.361 8.754,-1.52 0.102,-0.005 0.202,-0.028 0.369,-0.056 z M 24.732,-9.775 H 14.514 c -1.239,3.019 -2.077,6.142 -2.209,9.448 -0.004,0.097 0.021,0.195 0.035,0.322 h 12.392 z m 1.723,9.768 H 38.86 c -0.064,-3.5 -0.945,-6.729 -2.201,-9.768 H 26.623 c -0.056,0.009 -0.112,0.019 -0.168,0.029 z m 0,11.465 c 3.186,0.571 6.321,1.134 9.557,1.715 1.601,-3.523 2.649,-7.351 2.829,-11.45 H 26.455 Z m 0.021,14.963 c 3.518,-3.329 6.343,-7.047 8.587,-11.277 -1.806,-0.748 -6.935,-1.625 -8.587,-1.481 z m 17.359,-7.736 c -0.196,-0.128 -0.334,-0.247 -0.489,-0.313 -1.974,-0.849 -3.951,-1.684 -5.923,-2.539 -0.367,-0.16 -0.536,-0.067 -0.721,0.272 -1.925,3.549 -4.262,6.808 -6.962,9.807 -0.038,0.044 -0.068,0.097 -0.174,0.246 5.6,-0.978 10.299,-3.443 14.269,-7.473 m 1.738,-1.986 c 2.886,-3.759 4.674,-7.966 5.213,-12.686 0.087,-0.747 0.13,-1.5 0.196,-2.291 H 40.829 c -0.061,4.291 -1.197,8.302 -3.006,12.195 0.275,0.108 0.502,0.192 0.722,0.286 2.076,0.875 4.155,1.742 6.22,2.641 0.349,0.153 0.544,0.199 0.808,-0.145 M 50.617,-3.329 C 50.228,-5.601 49.554,-7.748 48.61,-9.775 H 38.592 c 1.162,3.134 1.919,6.366 2.154,9.768 H 50.99 c -0.124,-1.141 -0.186,-2.242 -0.373,-3.322 m 0.081,-6.446 C 52.392,-5.82 53.189,-1.37 52.787,3.352 51.593,17.461 39.61,28.665 24.879,28.389 9.14,28.016 -3.155,14.511 -1.849,-1.348 -1.605,-4.295 -0.87,-7.131 0.268,-9.775"
           style="fill:#ffffff;fill-opacity:1;fill-rule:evenodd;stroke:none"
           id="path5578-7" />
      </g>
    </g>
  </g>
</svg>
